{"page":1,"total_results":6934,"total_pages":347,"results":[{"popularity":16.237,"vote_count":2214,"video":false,"poster_path":"/2CAL2433ZeIihfX1Hb2139CX0pW.jpg","id":19404,"adult":false,"backdrop_path":"/pVGzV02qmHVoKx9ehBNy7m2u5fs.jpg","original_language":"hi","original_title":"दिलवाले दुल्हनिया ले जायेंगे","genre_ids":[35,18,10749],"title":"Amor Contra Viento Y Marea","vote_average":8.8,"overview":"Los Singh son una familia india con grandes convicciones culturales de su nación de origen, que emigraron a Reino Unido antes de nacer sus primeros hijos. Uno de ellos querrá casarse con una mujer ajena a su cultura y para ello deberá hacer todos los esfuerzos por convencer a su familia.","release_date":"1995-10-20"},{"popularity":42.522,"vote_count":15036,"video":false,"poster_path":"/dc1fX265fZIIY5Hab8I7CdETyJy.jpg","id":278,"adult":false,"backdrop_path":"/65nAfGikljrOkfIrcfmrNTJTAXF.jpg","original_language":"en","original_title":"The Shawshank Redemption","genre_ids":[80,18],"title":"Sueño de fuga","vote_average":8.7,"overview":"Narra las experiencias de un antiguo banquero exitoso estando prisionero en la sombría cárcel de Shawshank después de ser declarado culpable de un crimen que no cometió. La película retrata la manera única de cómo este hombre lidia con su nueva y tortuosa vida; en el camino se hace amigo de varios compañeros de prisión, sobre todo un experimentado preso llamado Red.","release_date":"1994-09-23"},{"popularity":26.551,"vote_count":11474,"video":false,"poster_path":"/6nwJnyac60cGHo4JUtnhdTQsRsx.jpg","id":238,"adult":false,"backdrop_path":"/6xKCYgH16UuwEGAyroLU6p8HLIn.jpg","original_language":"en","original_title":"The Godfather","genre_ids":[80,18],"title":"El Padrino","vote_average":8.7,"overview":"Don Vito Corleone (Marlon Brando) es el respetado y temido jefe de una de las cinco familias de la mafia de Nueva York. Tiene cuatro hijos: una chica, Connie (Talia Shire), y tres varones: el impulsivo Sonny (James Caan), el pusilánime Freddie (John Cazale) y Michael (Al Pacino), que no quiere saber nada de los negocios de su padre. Cuando Corleone, siempre aconsejado por su consejero Tom Hagen (Robert Duvall), se niega a intervenir en el negocio de las drogas, el jefe de otra banda ordena su asesinato. Empieza entonces una violenta y cruenta guerra entre las familias mafiosas.","release_date":"1972-03-14"},{"popularity":214.369,"id":496243,"video":false,"vote_count":4683,"vote_average":8.6,"title":"Parásitos","release_date":"2019-05-30","original_language":"ko","original_title":"기생충","genre_ids":[35,53,18],"backdrop_path":"/TU9NIjwzjoKPwQHoHshkFcQUCG.jpg","adult":false,"overview":"Tanto Gi Taek como su familia están sin trabajo. Cuando su hijo mayor, Gi Woo, empieza a recibir clases particulares en casa de Park, las dos familias, que tienen mucho en común pese a pertenecer a dos mundos totalmente distintos, comienzan una interrelación de resultados impresivibles.","poster_path":"/4N55tgxDW0RRATyrZHbx0q9HUKv.jpg"},{"popularity":22.937,"vote_count":9159,"video":false,"poster_path":"/3Ho0pXsnMxpGJWqdOi0KDNdaTkT.jpg","id":424,"adult":false,"backdrop_path":"/cTNYRUTXkBgPH3wP3kmPUB5U6dA.jpg","original_language":"en","original_title":"Schindler's List","genre_ids":[18,36,10752],"title":"La lista de Schindler","vote_average":8.6,"overview":"Segunda Guerra Mundial (1939-1945). Oskar Schindler (Liam Neeson), un hombre de enorme astucia y talento para las relaciones públicas, organiza un ambicioso plan para ganarse la simpatía de los nazis. Después de la invasión de Polonia por los alemanes (1939), consigue, gracias a sus relaciones con los nazis, la propiedad de una fábrica de Cracovia. Allí emplea a cientos de operarios judíos, cuya explotación le hace prosperar rápidamente. Su gerente (Ben Kingsley), también judío, es el verdadero director en la sombra, pues Schindler carece completamente de conocimientos para dirigir una empresa.","release_date":"1993-11-30"},{"popularity":18.533,"vote_count":6749,"video":false,"poster_path":"/vNR6SOKbOkj94gNfc2sJkQjeAe1.jpg","id":240,"adult":false,"backdrop_path":"/gLbBRyS7MBrmVUNce91Hmx9vzqI.jpg","original_language":"en","original_title":"The Godfather: Part II","genre_ids":[80,18],"title":"El Padrino 2","vote_average":8.5,"overview":"Michael Corleone lidera el imperio criminal de su padre, mientras que se recuerda el ascenso al poder del joven Vito.","release_date":"1974-12-20"},{"popularity":29.191,"vote_count":5009,"video":false,"poster_path":"/zCbmvY5pqUx7Kn5qifW6NqtmaB2.jpg","id":372058,"adult":false,"backdrop_path":"/7OMAfDJikBxItZBIug0NJig5DHD.jpg","original_language":"ja","original_title":"君の名は。","genre_ids":[16,18,10749],"title":"Tu Nombre","vote_average":8.5,"overview":"Mitsuha es una joven pueblerina cuyo padre participa en las elecciones para alcalde de la ciudad. Sin embargo, anhela la emoción de la vida de la ciudad y por eso tiene un deseo: «reencarnar en el chico guapo de sus sueños que seguro que se encuentra en Tokio». Un día, sueña con un chico tal y como desea pero ese chico en cuestión, Taki, de la gran ciudad, sueña a su vez con Mitsuha, una encantadora chica del campo. Taki y Mitsuha descubren un día que durante el sueño sus cuerpos se intercambian, y comienzan a comunicarse por medio de notas. A medida que consiguen superar torpemente un reto tras otro, se va creando entre los dos un vínculo que poco a poco se convierte en algo más romántico.","release_date":"2016-08-26"},{"popularity":39.135,"vote_count":8537,"video":false,"poster_path":"/onWoNxz6ad3FodA8EillIwKI4le.jpg","id":129,"adult":false,"backdrop_path":"/mnpRKVSXBX6jb56nabvmGKA0Wig.jpg","original_language":"ja","original_title":"千と千尋の神隠し","genre_ids":[16,14,10751],"title":"El viaje de Chihiro","vote_average":8.5,"overview":"Chihiro es una niña de 10 años que viaja en coche con sus padres. Después de atravesar un tunel, llegan a un mundo fantástico, en el que no hay lugar para los humanos, sólo existen dioses de primera y segunda clase. Cuando descubre que sus padres han sido convertidos en cerdos, Chihiro se siente muy sola y asustada","release_date":"2001-07-20"},{"popularity":22.405,"vote_count":9491,"video":false,"poster_path":"/1EFS40uFzv5ZVLSpu3xqYqnou67.jpg","id":497,"adult":false,"backdrop_path":"/Rlt20sEbOQKPVjia7lUilFm49W.jpg","original_language":"en","original_title":"The Green Mile","genre_ids":[80,18,14],"title":"Milagros Inesperados","vote_average":8.5,"overview":"En el sur de los Estados Unidos, en plena Depresión, Paul Edgecomb es un vigilante penitenciario a cargo de la Milla Verde, un pasillo que separa las celdas de los reclusos condenados a la silla eléctrica. Esperando su ejecución está John Coffey, un gigantesco negro acusado de asesinar brutalmente a dos hermanas de nueve años. Tras una personalidad ingenua, Coffey esconde un don sobrenatural prodigioso. A medida que transcurre la historia, Paul Edgecomb aprende que los milagros ocurren... incluso en los lugares más insospechados.","release_date":"1999-12-10"},{"popularity":28.661,"vote_count":17533,"video":false,"poster_path":"/3KY1qSxfKiOmQseOGiAGrcLUkqS.jpg","id":680,"adult":false,"backdrop_path":"/suaEOtk1N1sgg2MTM7oZd2cfVp3.jpg","original_language":"en","original_title":"Pulp Fiction","genre_ids":[80,53],"title":"Tiempos Violentos","vote_average":8.5,"overview":"Jules y Vincent, dos asesinos a sueldo con muy pocas luces, trabajan para Marsellus Wallace. Vincent le confiesa a Jules que Marsellus le ha pedido que cuide de Mia, su mujer. Jules le recomienda prudencia porque es muy peligroso sobrepasarse con la novia del jefe. Cuando llega la hora de trabajar, ambos deben ponerse manos a la obra. Su misión: recuperar un misterioso maletín.","release_date":"1994-09-10"},{"popularity":19.647,"vote_count":8237,"video":false,"poster_path":"/kfRQ4X9z5eOXD1NbYR0JqlOlidJ.jpg","id":637,"adult":false,"backdrop_path":"/bORe0eI72D874TMawOOFvqWS6Xe.jpg","original_language":"it","original_title":"La vita è bella","genre_ids":[35,18],"title":"La vida es bella","vote_average":8.5,"overview":"En 1939, a punto de estallar la Segunda Guerra Mundial (1939-1945), el extravagante Guido llega a Arezzo (Toscana) con la intención de abrir una librería. Allí conoce a Dora y, a pesar de que es la prometida del fascista Ferruccio, se casa con ella y tiene un hijo. Al estallar la guerra, los tres son internados en un campo de exterminio, donde Guido hará lo imposible para hacer creer a su hijo que la terrible situación que están padeciendo es tan sólo un juego.","release_date":"1997-12-20"},{"popularity":29.91,"vote_count":16923,"video":false,"poster_path":"/azV6hV99lYkdhydsQbJCI6FqMl4.jpg","id":13,"adult":false,"backdrop_path":"/tNVTWNa8cxZLw7aWvHzSDLyc7ig.jpg","original_language":"en","original_title":"Forrest Gump","genre_ids":[35,18,10749],"title":"Forrest Gump","vote_average":8.4,"overview":"Basada en la novela homónima del escritor Winston Groom, la película fue dirigida por Robert Zemeckis y protagonizada por Tom Hanks. La historia describe varias décadas de la vida de Forrest Gump, un nativo de Alabama que sufre de una leve discapacidad intelectual.","release_date":"1994-07-06"},{"popularity":31.354,"vote_count":21080,"video":false,"poster_path":"/8QDQExnfNFOtabLDKqfDQuHDsIg.jpg","id":155,"adult":false,"backdrop_path":"/hqkIcbrOHL86UncnHIsHVcVmzue.jpg","original_language":"en","original_title":"The Dark Knight","genre_ids":[28,80,18,53],"title":"Batman: El caballero de la noche","vote_average":8.4,"overview":"Batman regresa para continuar su guerra contra el crimen. Con la ayuda del teniente Jim Gordon y el Fiscal del Distrito Harvey Dent, Batman tiene como objetivo destruir el crimen organizado en la ciudad de Gotham. El triunvirato demuestra ser eficaz, pero pronto termina siendo presa del caos desencadenado por una nueva mente criminal que los aterrados ciudadanos conocen como Joker.","release_date":"2008-07-16"},{"popularity":35.327,"vote_count":14697,"video":false,"poster_path":"/mWuFbQrXyLk2kMBKF9TUPtDwuPx.jpg","id":122,"adult":false,"backdrop_path":"/8BPZO0Bf8TeAy8znF43z8soK3ys.jpg","original_language":"en","original_title":"The Lord of the Rings: The Return of the King","genre_ids":[28,12,14],"title":"El Señor de los Anillos: El Retorno del Rey","vote_average":8.4,"overview":"El viaje de La Comunidad del Anillo está llegando a su fin. Las fuerzas de Sauron han atacado Minas Tirith, la capital de Gondor, en su asedio definitivo contra la humanidad. El antaño gran reino, ahora gobernado por un anciano senescal, nunca ha necesitado más desesperadamente la figura de un Rey.  Pero ¿conseguirá Aragorn la fuerza suficiente para convertirse en aquello para lo que nació y enfrentarse a su destino?  El destino de la Tierra-media descansa sobre sus hombros.","release_date":"2003-12-01"},{"popularity":14.64,"vote_count":1727,"video":false,"poster_path":"/zr4DkzWIMjaWtj6hlsbN6dnNeTX.jpg","id":346,"adult":false,"backdrop_path":"/61vLiK96sbXeHpQiMxI4CuqBA3z.jpg","original_language":"ja","original_title":"七人の侍","genre_ids":[28,18],"title":"七人の侍","vote_average":8.4,"overview":"","release_date":"1954-04-26"},{"popularity":19.05,"vote_count":2667,"video":false,"poster_path":"/y76nmGfmOHaZwc1iCq7orBHeBQP.jpg","id":311,"adult":false,"backdrop_path":"/vnT6HzjLSDrAweHn9xWykb8Ii6T.jpg","original_language":"en","original_title":"Once Upon a Time in America","genre_ids":[80,18],"title":"Érase una vez en América","vote_average":8.4,"overview":"Principios del siglo XX. David Aaronson, un pobre chaval judío, conoce en los suburbios de Manhattan a Max, otro joven de origen hebreo dispuesto a llegar lejos por cualquier método. Entre ellos nace una gran amistad y, con otros colegas, forman una banda que prospera rápidamente, llegando a convertirse, en los tiempos de la Ley Seca (1920-1933), en unos importantes mafiosos.","release_date":"1984-05-23"},{"popularity":22.167,"vote_count":6727,"video":false,"poster_path":"/l80O2wzJRHQUPtlTlgVGVrlFtvg.jpg","id":769,"adult":false,"backdrop_path":"/sw7mordbZxgITU877yTpZCud90M.jpg","original_language":"en","original_title":"GoodFellas","genre_ids":[80,18],"title":"Buenos Muchachos","vote_average":8.4,"overview":"Henry, un niño de trece años de Brooklyn, vive fascinado con el mundo de los gánsters. Su sueño se hace realidad cuando entra en la familia Pauline.","release_date":"1990-09-12"},{"popularity":17.259,"vote_count":4358,"video":false,"poster_path":"/oYr0UtQ9dR2NaInzC4K7gkwDon8.jpg","id":389,"adult":false,"backdrop_path":"/lH2Ga8OzjU1XlxJ73shOlPx6cRw.jpg","original_language":"en","original_title":"12 Angry Men","genre_ids":[18],"title":"12 hombres sin piedad","vote_average":8.4,"overview":"Un hombre mantiene su decisión sobre la inocencia de un presunto asesino aunque es presionado por los otros del jurado.","release_date":"1957-04-10"},{"popularity":16.832,"vote_count":5788,"video":false,"poster_path":"/tUNq7z6x78L9jADUK8HltWUrc4x.jpg","id":539,"adult":false,"backdrop_path":"/3md49VBCeqY6MSNyAVY6d5eC6bA.jpg","original_language":"en","original_title":"Psycho","genre_ids":[18,27,53],"title":"Psicosis","vote_average":8.4,"overview":"Una joven secretaria, tras cometer un robo, se marcha de la ciudad y conduce durante horas, parando para descansar en un pequeño motel de carretera regentado por un joven llamado Norman. Todo parece normal y tranquilo en el apartado motel y en la casa de al lado en la que viven Norman y su madre pero, mientras está en la ducha, la joven es asesinada salvajemente a cuchilladas.","release_date":"1960-06-22"},{"popularity":18.615,"vote_count":4679,"video":false,"poster_path":"/c7ioGWDmZHcg3EXkGUdfQMv4hO3.jpg","id":429,"adult":false,"backdrop_path":"/xGC2fY5KFmtuXnsuQwYQKFOLZFy.jpg","original_language":"it","original_title":"Il buono, il brutto, il cattivo","genre_ids":[37],"title":"El bueno, el feo y el malo","vote_average":8.4,"overview":"Mientras la rabia de la Guerra civil entre la Unión y la Confederación, tres â€ de hombres “una persona solitaria tranquila, un asesino a sueldo despiadado y un â€ del bandido mexicano “peina al americano hacia el Sudoeste en busca de una caja fuerte que contiene 200,000$ en el oro robado.","release_date":"1966-12-23"}]}